…
``` r
library(sdf)

# pull some spatial data
data(guerry, package = "sfdep")
g <- dplyr::select(guerry, code_dept, crime_pers, region)

# using sf, cast to a spatial data frame
sdf_sf <- as_sdf(guerry)

sdf_sf
#> Geometry Type: sfc_MULTIPOLYGON
#> Bounding box: xmin: 47680 ymin: 1703258 xmax: 1031401 ymax: 2677441
#> # A tibble: 85 × 27
#>    code_dept count ave_id…¹  dept region depar…² crime…³ crime…⁴ liter…⁵ donat…⁶
#>    <fct>     <dbl>    <dbl> <int> <fct>  <fct>     <int>   <int>   <int>   <int>
#>  1 01            1       49     1 E      Ain       28870   15890      37    5098
#>  2 02            1      812     2 N      Aisne     26226    5521      51    8901
#>  3 03            1     1418     3 C      Allier    26747    7925      13   10973
#>  4 04            1     1603     4 E      Basses…   12935    7289      46    2733
#>  5 05            1     1802     5 E      Hautes…   17488    8174      69    6962
#>  6 07            1     2249     7 S      Ardeche    9474   10263      27    3188
#>  7 08            1    35395     8 N      Ardenn…   35203    8847      67    6400
#>  8 09            1     2526     9 S      Ariege     6173    9597      18    3542
#>  9 10            1    34410    10 E      Aube      19602    4086      59    3608
#> 10 11            1     2807    11 S      Aude      15647   10431      34    2582
#> # … with 75 more rows, 17 more variables: infants <int>, suicides <int>,
#> #   main_city <ord>, wealth <int>, commerce <int>, clergy <int>,
#> #   crime_parents <int>, infanticide <int>, donation_clergy <int>,
#> #   lottery <int>, desertion <int>, instruction <int>, prostitutes <int>,
#> #   distance <dbl>, area <int>, pop1831 <dbl>, geometry <MULTIPOLYGON>, and
#> #   abbreviated variable names ¹​ave_id_geo, ²​department, ³​crime_pers,
#> #   ⁴​crime_prop, ⁵​literacy, ⁶​donations

# using rust
sdf_rs <- as_sdf(
  # convert geometry to rust geometry
  dplyr::mutate(guerry, geometry = rsgeo::as_rsgeom(geometry))
)

sdf_rs
#> Geometry Type: rs_MULTIPOLYGON
#> Bounding box: xmin: 47680 ymin: 1703258 xmax: 1031401 ymax: 2677441
#> # A tibble: 85 × 27
#>    code_dept count ave_id…¹  dept region depar…² crime…³ crime…⁴ liter…⁵ donat…⁶
#>    <fct>     <dbl>    <dbl> <int> <fct>  <fct>     <int>   <int>   <int>   <int>
#>  1 01            1       49     1 E      Ain       28870   15890      37    5098
#>  2 02            1      812     2 N      Aisne     26226    5521      51    8901
#>  3 03            1     1418     3 C      Allier    26747    7925      13   10973
#>  4 04            1     1603     4 E      Basses…   12935    7289      46    2733
#>  5 05            1     1802     5 E      Hautes…   17488    8174      69    6962
#>  6 07            1     2249     7 S      Ardeche    9474   10263      27    3188
#>  7 08            1    35395     8 N      Ardenn…   35203    8847      67    6400
#>  8 09            1     2526     9 S      Ariege     6173    9597      18    3542
#>  9 10            1    34410    10 E      Aube      19602    4086      59    3608
#> 10 11            1     2807    11 S      Aude      15647   10431      34    2582
#> # … with 75 more rows, 17 more variables: infants <int>, suicides <int>,
#> #   main_city <ord>, wealth <int>, commerce <int>, clergy <int>,
#> #   crime_parents <int>, infanticide <int>, donation_clergy <int>,
#> #   lottery <int>, desertion <int>, instruction <int>, prostitutes <int>,
#> #   distance <dbl>, area <int>, pop1831 <dbl>, geometry <MULTIPOLYGON>, and
#> #   abbreviated variable names ¹​ave_id_geo, ²​department, ³​crime_pers,
#> #   ⁴​crime_prop, ⁵​literacy, ⁶​donations
```
…
geosdf <- as_tibble(guerry) |> 
  mutate(geometry = as_geos_geometry(geometry)) |> 
  as_sdf()

geosdf
#> Geometry Type: geos_geometry
#> Bounding box: xmin: 47680 ymin: 1703258 xmax: 172543 ymax: 1768513
#> # A tibble: 85 × 27
#>    code_dept count ave_id…¹  dept region depar…² crime…³ crime…⁴ liter…⁵ donat…⁶
#>    <fct>     <dbl>    <dbl> <int> <fct>  <fct>     <int>   <int>   <int>   <int>
#>  1 01            1       49     1 E      Ain       28870   15890      37    5098
#>  2 02            1      812     2 N      Aisne     26226    5521      51    8901
#>  3 03            1     1418     3 C      Allier    26747    7925      13   10973
#>  4 04            1     1603     4 E      Basses…   12935    7289      46    2733
#>  5 05            1     1802     5 E      Hautes…   17488    8174      69    6962
#>  6 07            1     2249     7 S      Ardeche    9474   10263      27    3188
#>  7 08            1    35395     8 N      Ardenn…   35203    8847      67    6400
#>  8 09            1     2526     9 S      Ariege     6173    9597      18    3542
#>  9 10            1    34410    10 E      Aube      19602    4086      59    3608
#> 10 11            1     2807    11 S      Aude      15647   10431      34    2582
#> # … with 75 more rows, 17 more variables: infants <int>, suicides <int>,
#> #   main_city <ord>, wealth <int>, commerce <int>, clergy <int>,
#> #   crime_parents <int>, infanticide <int>, donation_clergy <int>,
#> #   lottery <int>, desertion <int>, instruction <int>, prostitutes <int>,
#> #   distance <dbl>, area <int>, pop1831 <dbl>, geometry <geos_geom>, and
#> #   abbreviated variable names ¹​ave_id_geo, ²​department, ³​crime_pers,
#> #   ⁴​crime_prop, ⁵​literacy, ⁶​donations
```

Only those three methods we can now use dplyr functionality.

``` r
geosdf |> 
  group_by(code_dept) |> 
  summarise(total_crime = sum(crime_pers))
#> Geometry Type: geos_geometry
#> Bounding box: xmin: 47680 ymin: 1703258 xmax: 172543 ymax: 1768513
#> # A tibble: 85 × 3
#>    code_dept total_crime geometry                                              
#>    <fct>           <int> <geos_geom>                                           
#>  1 01              28870 <GEOMETRYCOLLECTION [785562 2073221...894622 2172530]>
#>  2 02              26226 <GEOMETRYCOLLECTION [645357 2427270...738049 2564568]>
#>  3 03              26747 <GEOMETRYCOLLECTION [595532 2104320...728480 2200625]>
#>  4 04              12935 <GEOMETRYCOLLECTION [853311 1858801...970310 1972682]>
#>  5 05              17488 <GEOMETRYCOLLECTION [845528 1915176...975716 2022608]>
#>  6 07               9474 <GEOMETRYCOLLECTION [720908 1920016...801330 2043510]>
#>  7 08              35203 <GEOMETRYCOLLECTION [722230 2472836...821101 2577475]>
#>  8 09               6173 <GEOMETRYCOLLECTION [476458 1729992...586665 1813083]>
#>  9 10              19602 <GEOMETRYCOLLECTION [677472 2326409...787769 2414830]>
#> 10 11              15647 <GEOMETRYCOLLECTION [547293 1738382...673587 1828670]>
#> # … with 75 more rows
```
…
To use this function let’s sample 25 random points from the originally
sf geometry and join on the region data to it.

``` r
pnt_sample <- sf::st_sample(guerry, 25)

pnts <- as_sdf(
  list(geometry = as_geos_geometry(pnt_sample))
)

sdf_join(pnts, geosdf)
#> Geometry Type: geos_geometry
#> Bounding box: xmin: 271837.44 ymin: 1720409.41 xmax: 271837.44 ymax: 1720409.41
#> # A tibble: 25 × 27
#>    code_dept count ave_id…¹  dept region depar…² crime…³ crime…⁴ liter…⁵ donat…⁶
#>    <fct>     <dbl>    <dbl> <int> <fct>  <fct>     <int>   <int>   <int>   <int>
#>  1 05            1     1802     5 E      Hautes…   17488    8174      69    6962
#>  2 64            1    23572    64 W      Basses…   16722    8533      47    3299
#>  3 36            1    12687    36 C      Indre     32404    7624      17   11315
#>  4 61            1    21456    61 N      Orne      28329    8248      45    9242
#>  5 41            1    14589    41 C      Loir-e…   21292    6017      27    5626
#>  6 43            1    15339    43 C      Haute-…   16170   18043      21    2746
#>  7 47            1    16326    47 W      Lot-et…   22969    8943      31    4432
#>  8 07            1     2249     7 S      Ardeche    9474   10263      27    3188
#>  9 88            1    31810    88 E      Vosges    18835    9044      62    4040
#> 10 40            1    14431    40 W      Landes    17687    6170      28   12059
#> # … with 15 more rows, 17 more variables: infants <int>, suicides <int>,
#> #   main_city <ord>, wealth <int>, commerce <int>, clergy <int>,
#> #   crime_parents <int>, infanticide <int>, donation_clergy <int>,
#> #   lottery <int>, desertion <int>, instruction <int>, prostitutes <int>,
#> #   distance <dbl>, area <int>, pop1831 <dbl>, geometry <geos_geom>, and
#> #   abbreviated variable names ¹​ave_id_geo, ²​department, ³​crime_pers,
#> #   ⁴​crime_prop, ⁵​literacy, ⁶​donations
```
